hyperparameter-tuning
…
collect_metrics(model_params) %>%
  arrange(mean)

# A tibble: 75 × 9
   hidden_units  penalty epochs .metric .estimator  mean     n std_err .config  
          <int>    <dbl>  <int> <chr>   <chr>      <dbl> <int>   <dbl> <chr>    
 1            7 1.17e- 4    700 mae     standard   0.299    10  0.0170 Preproce…
 2            8 1.35e- 2    898 mae     standard   0.300    10  0.0171 Preproce…
 3            8 8.95e- 4    794 mae     standard   0.301    10  0.0164 Preproce…
 4            6 3.69e- 5    187 mae     standard   0.302    10  0.0179 Preproce…
 5            9 2.29e- 8    225 mae     standard   0.304    10  0.0176 Preproce…
 6            5 2.48e- 3    594 mae     standard   0.306    10  0.0175 Preproce…
 7            9 5.54e- 9    132 mae     standard   0.307    10  0.0178 Preproce…
 8            7 3.00e-10    308 mae     standard   0.313    10  0.0183 Preproce…
 9            5 5.22e- 3    876 mae     standard   0.313    10  0.0185 Preproce…
10            6 1.18e-10     78 mae     standard   0.315    10  0.0165 Preproce…
# ℹ 65 more rows
…
